…
Abrem-se as cortinas e começa o espetáculo - Fiori Gigliotti

O pacote

O pacote está disponível neste repositório. Para instalar direto do R, basta rodar o código abaixo:

remotes::install_github("williamorim/brasileirao")

Para acessar os dados das partidas, chame o objeto matches.

library(dplyr)
library(brasileirao)
matches
## # A tibble: 7,273 x 5
##    season date       home          score away       
##     <dbl> <date>     <chr>         <chr> <chr>      
##  1   2003 2003-03-29 Atlético PR   2x0   Grêmio     
##  2   2003 2003-03-29 Guarani       4x2   Vasco      
##  3   2003 2003-03-30 Corinthians   0x3   Atlético MG
##  4   2003 2003-03-30 Goiás         2x2   Paysandu   
##  5   2003 2003-03-30 Criciúma      2x0   Fluminense 
##  6   2003 2003-03-30 Cruzeiro      2x2   São Caetano
##  7   2003 2003-03-30 Flamengo      1x1   Coritiba   
##  8   2003 2003-03-30 Fortaleza     0x0   Bahia      
##  9   2003 2003-03-30 Internacional 1x1   Ponte Preta
## 10   2003 2003-03-30 Juventude     2x2   São Paulo  
## # … with 7,263 more rows

Para ver os dados de uma temporada, você pode usar a função filter(), do pacote dplyr.

matches %>% 
  filter(season == 2020)
## # A tibble: 380 x 5
##    season date       home        score away         
##     <dbl> <date>     <chr>       <chr> <chr>        
##  1   2020 2020-08-08 Fortaleza   0x2   Athletico-PR 
##  2   2020 2020-08-08 Coritiba    0x1   Internacional
##  3   2020 2020-08-08 Sport       3x2   Ceará        
##  4   2020 2020-08-09 Flamengo    0x1   Atlético-MG  
##  5   2020 2020-08-09 Santos      1x1   Bragantino   
##  6   2020 2020-08-09 Grêmio      1x0   Fluminense   
##  7   2020 2020-09-30 Botafogo    1x2   Bahia        
##  8   2020 2020-09-30 Corinthians 0x0   Atlético-GO  
##  9   2020 2020-12-03 Goiás       0x3   São Paulo    
## 10   2020 2021-01-26 Palmeiras   1x1   Vasco        
## # … with 370 more rows
…
atleticos
## [1] "Atlético PR" "Atlético MG" "Atlético GO" "Atlético-MG" "Atlético-GO"

fix_names(atleticos)
## [1] "Athletico PR" "Atlético MG"  "Atlético GO"  "Atlético MG"  "Atlético GO"

Ela também pode ser utilizada diretamente em uma coluna com nome de times usando o mutate().

matches %>% 
  mutate(home = fix_names(home), away = fix_names(away))
## # A tibble: 7,273 x 5
##    season date       home          score away       
##     <dbl> <date>     <chr>         <chr> <chr>      
##  1   2003 2003-03-29 Athletico PR  2x0   Grêmio     
##  2   2003 2003-03-29 Guarani       4x2   Vasco      
##  3   2003 2003-03-30 Corinthians   0x3   Atlético MG
##  4   2003 2003-03-30 Goiás         2x2   Paysandu   
##  5   2003 2003-03-30 Criciúma      2x0   Fluminense 
##  6   2003 2003-03-30 Cruzeiro      2x2   São Caetano
##  7   2003 2003-03-30 Flamengo      1x1   Coritiba   
##  8   2003 2003-03-30 Fortaleza     0x0   Bahia      
##  9   2003 2003-03-30 Internacional 1x1   Ponte Preta
## 10   2003 2003-03-30 Juventude     2x2   São Paulo  
## # … with 7,263 more rows
…
