…
🪄 Estatístico

Já que você é um veterano do R, você precisa ser capaz de dobrar o droll à sua
vontade. Se você gostaria de ver o tecido da realidade do droll, você pode usar
a função r() para obter uma distribuição de rolagem completa. Se você quiser
precisão máxima, você também pode impedir o droll de converter a sua
representação interna (operada pelo Ryacas) para doubles com precise = TRUE.

# Obter a distribuição completa de 8d6
r(8 * d6)

#> # A tibble: 41 × 4
#>    outcome     n           d           p
#>      <dbl> <dbl>       <dbl>       <dbl>
#>  1       8     1 0.000000595 0.000000595
#>  2       9     8 0.00000476  0.00000536 
#>  3      10    36 0.0000214   0.0000268  
#>  4      11   120 0.0000714   0.0000982  
#>  5      12   330 0.000196    0.000295   
#>  6      13   792 0.000472    0.000766   
#>  7      14  1708 0.00102     0.00178    
#>  8      15  3368 0.00201     0.00379    
#>  9      16  6147 0.00366     0.00745    
#> 10      17 10480 0.00624     0.0137     
#> # … with 31 more rows

# Poder ilimitado
r(8 * d6, precise = TRUE)

#> # A tibble: 41 × 4
#>    outcome n     d          p           
#>      <dbl> <chr> <chr>      <chr>       
#>  1       8 1     1/1679616  1/1679616   
#>  2       9 8     1/209952   1/186624    
#>  3      10 36    1/46656    5/186624    
#>  4      11 120   5/69984    55/559872   
#>  5      12 330   55/279936  55/186624   
#>  6      13 792   11/23328   143/186624  
#>  7      14 1708  427/419904 2995/1679616
#>  8      15 3368  421/209952 707/186624  
#>  9      16 6147  683/186624 695/93312   
#> 10      17 10480 655/104976 11495/839808
#> # … with 31 more rows
…
