…
O resultado ainda é uma lista… podemos usar a magia do pacote purrr e transformar essa lista em um dataframe:

lista_repos <-  repos_cursor  |> 
  purrr::flatten() |> 
  purrr::map(unlist, recursive = TRUE)  |> 
  purrr::map_dfr(tibble::enframe, .id = "id_repo") |> 
  tidyr::pivot_wider() |> 
  janitor::clean_names()

lista_repos
## # A tibble: 303 × 108
##    id_repo id        node_id        name  full_name private owner_login owner_id
##    <chr>   <chr>     <chr>          <chr> <chr>     <chr>   <chr>       <chr>   
##  1 1       311969160 MDEwOlJlcG9za… chess curso-r/… FALSE   curso-r     10060716
##  2 2       154844030 MDEwOlJlcG9za… auth0 curso-r/… FALSE   curso-r     10060716
##  3 3       316277552 MDEwOlJlcG9za… main… curso-r/… FALSE   curso-r     10060716
##  4 4       431987860 R_kgDOGb-clA   2022… curso-r/… FALSE   curso-r     10060716
##  5 5       249453848 MDEwOlJlcG9za… tree… curso-r/… FALSE   curso-r     10060716
##  6 6       272436141 MDEwOlJlcG9za… base… curso-r/… FALSE   curso-r     10060716
##  7 7       445626145 R_kgDOGo-3IQ   main… curso-r/… FALSE   curso-r     10060716
##  8 8       163780826 MDEwOlJlcG9za… shin… curso-r/… FALSE   curso-r     10060716
##  9 9       436799548 R_kgDOGgkIPA   scryr curso-r/… FALSE   curso-r     10060716
## 10 10      431978304 R_kgDOGb93QA   2022… curso-r/… FALSE   curso-r     10060716
## # … with 293 more rows, and 100 more variables: owner_node_id <chr>,
## #   owner_avatar_url <chr>, owner_gravatar_id <chr>, owner_url <chr>,
## #   owner_html_url <chr>, owner_followers_url <chr>, owner_following_url <chr>,
## #   owner_gists_url <chr>, owner_starred_url <chr>,
## #   owner_subscriptions_url <chr>, owner_organizations_url <chr>,
## #   owner_repos_url <chr>, owner_events_url <chr>,
## #   owner_received_events_url <chr>, owner_type <chr>, …
…
